{
  "P100SmartPlug": {
    "class": "org.openhab.core.items.ManagedItemProvider$PersistedItem",
    "value": {
      "groupNames": [],
      "itemType": "Group",
      "tags": [
        "Equipment"
      ],
      "label": "P100 SmartPlug",
      "category": ""
    }
  },
  "P100SmartPlug_OutputSwitch": {
    "class": "org.openhab.core.items.ManagedItemProvider$PersistedItem",
    "value": {
      "groupNames": [
        "P100SmartPlug"
      ],
      "itemType": "Switch",
      "tags": [
        "Point"
      ],
      "label": "Output Switch",
      "category": "PowerOutlet"
    }
  }
}