{
  "tapocontrol:P100:9391c23c6b:3d90b8283d": {
    "class": "org.openhab.core.thing.internal.ThingImpl",
    "value": {
      "label": "P100 SmartPlug",
      "bridgeUID": {
        "segments": [
          "tapocontrol",
          "bridge",
          "9391c23c6b"
        ],
        "uid": "tapocontrol:bridge:9391c23c6b"
      },
      "channels": [
        {
          "acceptedItemType": "Switch",
          "kind": "STATE",
          "uid": {
            "segments": [
              "tapocontrol",
              "P100",
              "9391c23c6b",
              "3d90b8283d",
              "actuator#output"
            ],
            "uid": "tapocontrol:P100:9391c23c6b:3d90b8283d:actuator#output"
          },
          "channelTypeUID": {
            "segments": [
              "tapocontrol",
              "outputChannel"
            ],
            "uid": "tapocontrol:outputChannel"
          },
          "label": "Output Switch",
          "description": "Switches the power state on/off",
          "configuration": {
            "properties": {}
          },
          "properties": {},
          "defaultTags": [],
          "autoUpdatePolicy": "DEFAULT"
        },
        {
          "acceptedItemType": "Number",
          "kind": "STATE",
          "uid": {
            "segments": [
              "tapocontrol",
              "P100",
              "9391c23c6b",
              "3d90b8283d",
              "device#wifiSignal"
            ],
            "uid": "tapocontrol:P100:9391c23c6b:3d90b8283d:device#wifiSignal"
          },
          "channelTypeUID": {
            "segments": [
              "system",
              "signal-strength"
            ],
            "uid": "system:signal-strength"
          },
          "label": "Signal Strength",
          "configuration": {
            "properties": {}
          },
          "properties": {},
          "defaultTags": [
            "Level",
            "Measurement"
          ],
          "autoUpdatePolicy": "DEFAULT"
        },
        {
          "acceptedItemType": "Number:Time",
          "kind": "STATE",
          "uid": {
            "segments": [
              "tapocontrol",
              "P100",
              "9391c23c6b",
              "3d90b8283d",
              "device#onTime"
            ],
            "uid": "tapocontrol:P100:9391c23c6b:3d90b8283d:device#onTime"
          },
          "channelTypeUID": {
            "segments": [
              "tapocontrol",
              "ontime"
            ],
            "uid": "tapocontrol:ontime"
          },
          "label": "On-Time",
          "description": "Number of seconds since the device was powered on",
          "configuration": {
            "properties": {}
          },
          "properties": {},
          "defaultTags": [],
          "autoUpdatePolicy": "DEFAULT"
        },
        {
          "acceptedItemType": "Switch",
          "kind": "STATE",
          "uid": {
            "segments": [
              "tapocontrol",
              "P100",
              "9391c23c6b",
              "3d90b8283d",
              "device#overheated"
            ],
            "uid": "tapocontrol:P100:9391c23c6b:3d90b8283d:device#overheated"
          },
          "channelTypeUID": {
            "segments": [
              "tapocontrol",
              "overheated"
            ],
            "uid": "tapocontrol:overheated"
          },
          "label": "Device Overheated",
          "description": "ON if device is overheated",
          "configuration": {
            "properties": {}
          },
          "properties": {},
          "defaultTags": [],
          "autoUpdatePolicy": "DEFAULT"
        }
      ],
      "configuration": {
        "properties": {
          "ipAddress": "11.0.0.10",
          "pollingInterval": 30
        }
      },
      "properties": {
        "firmwareVersion": "1.4.10 Build 20211104 Rel. 35882",
        "hardwareVersion": "1.20.0",
        "macAddress": "B4-B0-24-7B-F3-38",
        "modelId": "P100",
        "serialNumber": "8022845D0899DBF10684CC5405CEE7031F579864"
      },
      "uid": {
        "segments": [
          "tapocontrol",
          "P100",
          "9391c23c6b",
          "3d90b8283d"
        ],
        "uid": "tapocontrol:P100:9391c23c6b:3d90b8283d"
      },
      "thingTypeUID": {
        "segments": [
          "tapocontrol",
          "P100"
        ],
        "uid": "tapocontrol:P100"
      }
    }
  },
  "tapocontrol:bridge:9391c23c6b": {
    "class": "org.openhab.core.thing.internal.BridgeImpl",
    "value": {
      "label": "Cloud-Login",
      "channels": [],
      "configuration": {
        "properties": {
          "cloudDiscovery": false,
          "discoveryInterval": 60,
          "password": "tmsl9947!",
          "username": "limekatjq@naver.com"
        }
      },
      "properties": {},
      "uid": {
        "segments": [
          "tapocontrol",
          "bridge",
          "9391c23c6b"
        ],
        "uid": "tapocontrol:bridge:9391c23c6b"
      },
      "thingTypeUID": {
        "segments": [
          "tapocontrol",
          "bridge"
        ],
        "uid": "tapocontrol:bridge"
      }
    }
  }
}